Documentation for the Dyad Ratios Algorithm
…
library(dplyr) 
#> 
#> Attaching package: 'dplyr'
#> The following objects are masked from 'package:stats':
#> 
#>     filter, lag
#> The following objects are masked from 'package:base':
#> 
#>     intersect, setdiff, setequal, union
jennings %>% 
  group_by(variable) %>% 
  tally() %>% 
  arrange(desc(n))
#> # A tibble: 37 × 2
#>    variable         n
#>    <chr>        <int>
#>  1 eb_trustprl     30
#>  2 eb_trustgov     29
#>  3 govtrust_bsa    20
#>  4 h_govsys        20
#>  5 trust_mori2     18
#>  6 trust_mori1     17
#>  7 bsa_poltrust    15
#>  8 bsa_MPs         14
#>  9 bsa_votes       14
#> 10 bes_mpstrust     8
#> # ℹ 27 more rows
…
